module gitlab.com/pcanilho/golbclient

go 1.16

require (
	github.com/Knetic/govaluate v0.0.0-20171022003610-9aa49832a739
	github.com/antonfisher/nested-logrus-formatter v1.0.2
	github.com/jessevdk/go-flags v0.0.0-20170926144705-f88afde2fa19
	github.com/joonix/log v0.0.0-20190524090622-13fe31bbdd7a
	github.com/sirupsen/logrus v1.4.2
)
